My PsyArXiv coauthorship network – Matti’s website
…
# Calculate total number of contributors
contributors_total <- nrow(contributors)

In this post I’m only interested in my own coauthorship network. The contributors table now has rows for each preprint’s contributors. I first filter it to only include preprints on which I was a coauthor (retaining all authors of the preprints):

Code

my_coauthors <- contributors |>
  # Retain all preprints where any of the authors was me
  filter(any(name == "Matti Vuorre"), .by = id)

my_coauthors
## # A tibble: 90 × 2
##   id       name               
##   <chr>    <chr>              
## 1 qrjza_v1 Niklas Johannes    
## 2 qrjza_v1 Matti Vuorre       
## 3 qrjza_v1 Andrew K Przybylski
## # ℹ 87 more rows

Above, id is the preprint’s OSF ID, and each has one or more names of the preprints’ contributors.

If I created a graph from these data, it would only show my immediate collaborators, but I wish to expand it to show their other collaborators as well. To do so, I filter the original contributor data to include only preprints that have one or more authors who appear as contributors on any of my preprints:

Code

my_coauthors_coauthors <- contributors |>
  # Retain all preprints where any author was my coauthor
  filter(any(name %in% unique(my_coauthors$name)), .by = id)

my_coauthors_coauthors
## # A tibble: 1,195 × 2
##   id       name                  
##   <chr>    <chr>                 
## 1 zzbka_v1 Andrew K Przybylski   
## 2 zzbka_v1 Antonius J. van Rooij 
## 3 zzbka_v1 Michelle Colder Carras
## # ℹ 1,192 more rows
…
# Get all pairs of co-authors for each paper and count collaborations
edges <- my_coauthors_coauthors |>
  group_by(id) |>
  # Create all pairwise combinations within each paper
  reframe(expand.grid(
    author1 = name,
    author2 = name,
    stringsAsFactors = FALSE
  )) |>
  # Remove self-loops and order pairs for undirected edges
  filter(author1 < author2) |>
  rename(from = author1, to = author2)

edges
## # A tibble: 2,624 × 3
##   id       from         to             
##   <chr>    <chr>        <chr>          
## 1 2erwy_v1 Harm Veling  Niklas Johannes
## 2 2erwy_v1 Jonas Dora   Niklas Johannes
## 3 2erwy_v1 Adrian Meier Niklas Johannes
## # ℹ 2,621 more rows
…
